[
    {"name":"BMW 328i",
        "price": 18000,
        "color": "black",
        "id": 1,
        "url":"https://s.aolcdn.com/dims-global/dims3/GLOB/legacy_thumbnail/788x525/quality/85/https://s.aolcdn.com/commerce/autodata/images/USC60BMC053A021001.jpg"

},
{"name":"BMW m4",
    "price": 60000,
    "color": "green",
    "id": 2,
    "url":"https://s.aolcdn.com/dims-global/dims3/GLOB/legacy_thumbnail/788x525/quality/85/https://s.aolcdn.com/commerce/autodata/images/CAD10BMC641B021001.jpg"

},
{"name":"BMW X6",
    "price": 50000,
    "color": "white",
    "id": 3,
    "url":"https://s.aolcdn.com/dims-global/dims3/GLOB/legacy_thumbnail/788x525/quality/85/https://s.aolcdn.com/commerce/autodata/images/USD00BMS212A021001.jpg"

},
{"name":"BMW M550",
    "price": 75000,
    "color": "gray",
    "id": 4,
    "url":"https://s.aolcdn.com/dims-global/dims3/GLOB/legacy_thumbnail/300x169/quality/80/https://s.aolcdn.com/commerce/autodata/images/USD10BMC841A021001.jpg"

},
{"name":"Lexus rx 350l",
    "price": 48000,
    "color": "white",
    "id": 5,
    "url":"https://s.aolcdn.com/dims-global/dims3/GLOB/legacy_thumbnail/300x169/quality/80/https://s.aolcdn.com/commerce/autodata/images/CAD00LES191A021001.jpg"

},
{"name":"Lexus ls500",
    "price": 76000,
    "color": "black",
    "id": 6,
    "url":"https://s.aolcdn.com/dims-global/dims3/GLOB/legacy_thumbnail/300x169/quality/80/https://s.aolcdn.com/commerce/autodata/images/USD10LEC361A021001.jpg"

},
{"name":"Range Rover",
    "price": 57000,
    "color": "gray",
    "id": 7,
    "url":"https://s.aolcdn.com/dims-global/dims3/GLOB/legacy_thumbnail/300x169/quality/80/https://s.aolcdn.com/commerce/autodata/images/USD10LRS121A021001.jpg"

}
]